10/12/2018 10:56:57 PM FEED MONEY:             $1.00 $1.00
10/12/2018 10:57:06 PM U-Chews  D1             $1.00 $0.15
10/12/2018 10:57:09 PM GIVE CHANGE:            $0.15 $0.00
10/14/2018 04:24:15 PM FEED MONEY:             $5.00 $5.00
10/14/2018 04:24:19 PM FEED MONEY:             $2.00 $7.00
10/14/2018 04:24:28 PM Cola  C1                $7.00 $5.75
10/14/2018 04:24:41 PM Crunchie  B4            $5.75 $4.00
10/14/2018 04:24:45 PM GIVE CHANGE:            $4.00 $0.00
10/14/2018 04:44:27 PM FEED MONEY:             $10.00 $10.00
10/14/2018 04:44:37 PM Mountain Melter  C3     $10.00 $8.50
10/14/2018 04:44:51 PM GIVE CHANGE:            $8.50 $0.00
10/14/2018 04:54:05 PM FEED MONEY:             $5.00 $5.00
10/14/2018 04:54:12 PM Stackers  A2            $5.00 $3.25
10/14/2018 04:54:18 PM GIVE CHANGE:            $3.25 $0.00
10/14/2018 05:08:02 PM FEED MONEY:             $5.00 $5.00
10/14/2018 05:08:06 PM Chiclets  D3            $5.00 $4.25
10/14/2018 05:08:08 PM GIVE CHANGE:            $4.25 $0.00
10/14/2018 05:16:27 PM GIVE CHANGE:            $0 $0.00
10/14/2018 05:16:33 PM FEED MONEY:             $10.00 $10.00
10/14/2018 05:16:38 PM Cowtales  B2            $10.00 $8.50
10/14/2018 05:16:44 PM Cola  C1                $8.50 $7.25
10/14/2018 05:16:48 PM Cola  C1                $7.25 $6.00
10/14/2018 05:16:50 PM GIVE CHANGE:            $6.00 $0.00
10/14/2018 05:26:13 PM FEED MONEY:             $5.00 $5.00
10/14/2018 05:26:17 PM Cola  C1                $5.00 $3.75
10/14/2018 05:26:18 PM GIVE CHANGE:            $3.75 $0.00
10/14/2018 07:57:48 PM FEED MONEY:             $10.00 $10.00
10/14/2018 07:58:19 PM Grain Waves  A3         $10.00 $7.25
10/14/2018 07:58:30 PM Grain Waves  A3         $7.25 $4.50
10/14/2018 07:58:59 PM Mountain Melter  C3     $4.50 $3.00
10/14/2018 07:59:02 PM GIVE CHANGE:            $3.00 $0.00
10/14/2018 07:59:20 PM FEED MONEY:             $10.00 $10.00
10/14/2018 07:59:29 PM Grain Waves  A3         $10.00 $7.25
10/14/2018 07:59:31 PM Grain Waves  A3         $7.25 $4.50
10/14/2018 07:59:56 PM Grain Waves  A3         $4.50 $1.75
10/14/2018 08:02:53 PM FEED MONEY:             $10.00 $10.00
10/14/2018 08:02:58 PM Grain Waves  A3         $10.00 $7.25
10/14/2018 08:03:07 PM Grain Waves  A3         $7.25 $4.50
10/14/2018 08:03:11 PM Grain Waves  A3         $4.50 $1.75
10/14/2018 08:03:33 PM FEED MONEY:             $5.00 $6.75
10/14/2018 08:03:37 PM Grain Waves  A3         $6.75 $4.00
10/14/2018 08:03:48 PM Grain Waves  A3         $4.00 $1.25
10/14/2018 08:04:00 PM GIVE CHANGE:            $1.25 $0.00
10/15/2018 02:16:29 PM FEED MONEY:             $10.00 $10.00
10/15/2018 02:16:34 PM Grain Waves  A3         $10.00 $7.25
10/15/2018 02:16:39 PM Triplemint  D4          $7.25 $6.50
10/15/2018 02:16:40 PM GIVE CHANGE:            $6.50 $0.00
10/15/2018 02:20:23 PM FEED MONEY:             $5.00 $5.00
10/15/2018 02:20:28 PM Mountain Melter  C3     $5.00 $3.50
10/15/2018 02:20:31 PM GIVE CHANGE:            $3.50 $0.00
10/15/2018 03:10:55 PM FEED MONEY:             $5.00 $5.00
10/15/2018 03:11:16 PM Dr. Salt  C2            $5.00 $3.50
10/15/2018 03:11:26 PM Cola  C1                $3.50 $2.25
10/15/2018 03:11:42 PM U-Chews  D1             $2.25 $1.40
10/15/2018 03:11:48 PM GIVE CHANGE:            $1.40 $0.00
10/15/2018 03:12:23 PM FEED MONEY:             $20.00 $20.00
10/15/2018 03:12:31 PM FEED MONEY:             $2.00 $22.00
10/15/2018 03:12:49 PM FEED MONEY:             $1.00 $23.00
10/15/2018 03:13:02 PM Stackers  A2            $23.00 $21.25
10/15/2018 03:13:07 PM Stackers  A2            $21.25 $19.50
10/15/2018 03:13:13 PM Stackers  A2            $19.50 $17.75
10/15/2018 03:13:19 PM Stackers  A2            $17.75 $16.00
10/15/2018 03:13:23 PM Stackers  A2            $16.00 $14.25
10/15/2018 03:13:43 PM Chiclets  D3            $14.25 $13.50
10/15/2018 03:13:49 PM Crunchie  B4            $13.50 $11.75
10/15/2018 03:13:54 PM Dr. Salt  C2            $11.75 $10.25
10/15/2018 03:13:58 PM Potato Crisps  A1       $10.25 $7.20
10/15/2018 03:14:02 PM GIVE CHANGE:            $7.20 $0.00
